{
  "images" : [
    {
      "idiom" : "universal",
      "filename" : "ionicons_2-0-1_ios-people_25_0_000000_none.png",
      "scale" : "1x"
    },
    {
      "idiom" : "universal",
      "filename" : "ionicons_2-0-1_ios-people_50_0_000000_none.png",
      "scale" : "2x"
    },
    {
      "idiom" : "universal",
      "filename" : "ionicons_2-0-1_ios-people_75_0_000000_none.png",
      "scale" : "3x"
    }
  ],
  "info" : {
    "version" : 1,
    "author" : "xcode"
  }
}